<?xml version="1.0" encoding="UTF-8"?>
<svg width="253px" height="103px" viewBox="0 0 253 103" version="1.1" xmlns="http://www.w3.org/2000/svg" xmlns:xlink="http://www.w3.org/1999/xlink">
    <!-- Generator: Sketch 60.1 (88133) - https://sketch.com -->
    <title>Group 11</title>
    <desc>Created with Sketch.</desc>
    <g id="Page-1" stroke="none" stroke-width="1" fill="none" fill-rule="evenodd">
        <g id="1-1-index" transform="translate(-45.000000, -2412.000000)">
            <g id="Group-6" transform="translate(-42.000000, 2350.000000)">
                <g id="Group-10" transform="translate(0.596650, 0.000000)">
                    <g id="Group-11" transform="translate(83.000000, 50.182101)">
                        <line x1="103.898819" y1="14.2880413" x2="129.394991" y2="35.2955615" id="Path" stroke="#FFFFFF" stroke-width="0.5" transform="translate(116.646905, 24.791801) rotate(-5.945177) translate(-116.646905, -24.791801) "></line>
                        <line x1="106.754052" y1="8" x2="250.486403" y2="90.279959" id="Path" stroke="#FFFFFF" stroke-width="0.5" transform="translate(178.620227, 49.139980) rotate(-5.945177) translate(-178.620227, -49.139980) "></line>
                        <line x1="108.181998" y1="10.606742" x2="200.287293" y2="117.778514" id="Path" stroke="#FFFFFF" stroke-width="0.5" transform="translate(154.234646, 64.192628) rotate(-5.945177) translate(-154.234646, -64.192628) "></line>
                        <line x1="107.223477" y1="18.9223753" x2="40.1497046" y2="99.3198747" id="Path" stroke="#FFFFFF" stroke-width="0.5" transform="translate(73.686591, 59.121125) rotate(-5.945177) translate(-73.686591, -59.121125) "></line>
                        <line x1="105.479615" y1="20.8514871" x2="3" y2="65.737611" id="Path" stroke="#FFFFFF" stroke-width="0.5" transform="translate(54.239808, 43.294549) rotate(-5.945177) translate(-54.239808, -43.294549) "></line>
                        <line x1="102.888063" y1="16.9464735" x2="56.5987833" y2="16.9505632" id="Path" stroke="#FFFFFF" stroke-width="0.5" transform="translate(79.743423, 16.948518) rotate(-5.945177) translate(-79.743423, -16.948518) "></line>
                        <ellipse id="Oval" fill="#FFFFFF" transform="translate(102.873659, 15.664489) rotate(-5.945177) translate(-102.873659, -15.664489) " cx="102.873659" cy="15.6644888" rx="2.97641358" ry="3.01554465"></ellipse>
                        <ellipse id="Oval" fill="#FFFFFF" transform="translate(130.414855, 33.918240) rotate(-5.945177) translate(-130.414855, -33.918240) " cx="130.414855" cy="33.9182401" rx="1.88074246" ry="1.90547087"></ellipse>
                        <ellipse id="Oval" fill="#FFFFFF" transform="translate(205.588552, 112.719723) rotate(-5.945177) translate(-205.588552, -112.719723) " cx="205.588552" cy="112.719723" rx="1.88074246" ry="1.90547087"></ellipse>
                        <ellipse id="Oval" fill="#FFFFFF" transform="translate(254.360661, 82.617568) rotate(-5.945177) translate(-254.360661, -82.617568) " cx="254.360661" cy="82.6175683" rx="1.88074246" ry="1.90547087"></ellipse>
                        <ellipse id="Oval" fill="#FFFFFF" transform="translate(56.608695, 18.230270) rotate(-5.945177) translate(-56.608695, -18.230270) " cx="56.6086946" cy="18.2302704" rx="1.88074246" ry="1.90547087"></ellipse>
                        <ellipse id="Oval" fill="#FFFFFF" transform="translate(5.598622, 70.925933) rotate(-5.945177) translate(-5.598622, -70.925933) " cx="5.59862245" cy="70.9259331" rx="1.88074246" ry="1.90547087"></ellipse>
                        <ellipse id="Oval" fill="#FFFFFF" transform="translate(44.494772, 102.597566) rotate(-5.945177) translate(-44.494772, -102.597566) " cx="44.4947725" cy="102.597566" rx="1.88074246" ry="1.90547087"></ellipse>
                    </g>
                </g>
            </g>
        </g>
    </g>
</svg>